                 C ;  4 → 2 → 1100
                E8 ;  8 → 3 → 11101000
              F590 ; 12 → 4 → 1111010110010000
              F590 ; 16 → 4 → 1111010110010000
          FB5CA620 ; 20 → 5 → 11111011010111001010011000100000
          FB5CA620 ; 24 → 5 → 11111011010111001010011000100000
          FB5CA620 ; 28 → 5 → 11111011010111001010011000100000
          FB5CA620 ; 32 → 5 → 11111011010111001010011000100000
  FDBABCB349C51840 ; 36 → 6 → 1111110110111010101111001011001101001001110001010001100001000000
  FDBABCB349C51840 ; 40 → 6 → 1111110110111010101111001011001101001001110001010001100001000000
  FDBABCB349C51840 ; 44 → 6 → 1111110110111010101111001011001101001001110001010001100001000000
  FDBABCB349C51840 ; 48 → 6 → 1111110110111010101111001011001101001001110001010001100001000000
  FDBABCB349C51840 ; 52 → 6 → 1111110110111010101111001011001101001001110001010001100001000000
  FDBABCB349C51840 ; 56 → 6 → 1111110110111010101111001011001101001001110001010001100001000000
  FDBABCB349C51840 ; 60 → 6 → 1111110110111010101111001011001101001001110001010001100001000000
  FDBABCB349C51840 ; 64 → 6 → 1111110110111010101111001011001101001001110001010001100001000000
